{
  "name": "mta",
  "title": "Chronicles of Darkness 2e - WoD piscies version",
  "description": "2nd edition of the Chronicles of Darkness system by White Wolf.",
  "version": "0.9.4",
  "author": "SoulCake",
  "authors": [
		{
			"name": "SoulCake",
			"discord": "SoulCake#7804",
			"ko-fi":"soulcake"
		}
	],
  "minimumCoreVersion": "9",
  "compatibleCoreVersion": "9",
  "url": "https://gitlab.com/piscies/worldofdarkness/",
  "manifest": "https://gitlab.com/piscies/worldofdarkness/-/raw/main/system.json",
  "download": "https://gitlab.com/piscies/worldofdarkness/-/raw/main/versions/mta-0.9.4.zip",
  "changelog": "https://gitlab.com/MarlQ/mta/-/releases/0.9.2",
  "readme": "https://gitlab.com/piscies/worldofdarkness/-/blob/main/README.md",
  "bugs": "https://gitlab.com/MarlQ/mta/-/issues",
  "esmodules": ["module/mta.js"],
  "styles": ["styles/default.css", "styles/override.css"],
  "packs": [
    {
      "name": "macros",
      "label": "Macros",
      "system": "mta",
      "path": "./packs/macros.db",
      "entity": "Macro"
    }
  ],
  "languages": [
    {
      "lang": "en",
      "name": "English",
      "path": "lang/en.json"
    },
    {
      "lang": "fr",
      "name": "French",
      "path": "lang/fr.json"
    },
    {
      "lang": "pt",
      "name": "Portuguese",
      "path": "lang/pt.json"
    }
  ],
  "initiative": "1d10 + @derivedTraits.initiativeMod.final",
  "gridDistance": 1,
  "gridUnits": "m",
  "primaryTokenAttribute": "health"
}
